247825 760608 509
716109 739867 424
885047 6434 525
102483 674592 509
343695 490266 449
469395 556838 470
944965 590633 525
804199 79578 509
195599 576876 470
35301 906951 525
35576 177700 383
720025 387760 509
798152 863158 525
245753 39451 443
620382 936638 525
656974 726606 504
293617 861983 525
441628 577685 470
98879 204791 383
706629 604637 509
25303 187781 383
522859 253447 470
386239 276708 441
654163 372042 509
608508 671682 509
59948 268063 443
585593 826342 509
973366 690857 525
931204 358 525
668756 289663 509
274840 846308 525
733492 352418 509
138728 144962 375
44311 961756 525
991233 983432 427
31269 599660 470
837162 668181 504
937149 936031 383
860564 554159 525
113634 84516 354
720809 998912 525
382856 873400 525
34420 237996 443
178868 816965 509
90155 281394 443
736533 23812 509
861991 802092 525
101237 695632 509
532570 951799 525
368648 659239 509
372850 771598 509
258946 377742 441
177832 588845 470
857011 798421 525
618779 770977 509
380778 137170 443
380369 137903 443
798752 605357 509
998751 359901 525
577105 171422 470
204946 96741 383
685931 571743 509
568890 35109 470
427188 788953 509
797788 994924 525
716262 86085 509
567651 173285 470
156121 8040 375
920592 566450 525
49338 382916 443
34161 834743 509
477356 473378 382
549396 71166 470
403629 257350 441
556944 69497 470
783282 506413 509
112353 406170 443
546888 794443 509
275630 220334 443
223625 12766 386
126032 347086 443
139465 560825 470
568483 33867 470
15993 263282 443
168474 314743 443
207683 477686 449
43620 152770 375
756805 830874 468
37498 573369 470
257918 712410 509
744412 867011 525
426347 102788 449
279533 560355 470
777346 695161 504
6076 743157 509
632862 384616 509
61150 919121 525
616482 97389 470
557138 743343 509
805581 435591 509
910768 938787 476
519543 888616 525
90941 16454 351
623046 581278 447
199279 551490 470
103041 658071 509
512900 197488 470
623421 117741 470
569023 81541 470
499924 170034 449
489104 241167 449
253590 666230 509
53404 519857 470
834642 365234 509
767563 794909 468
129693 873602 525
196340 746704 509
962622 542908 525
863404 643498 525
985593 369473 525
945271 101965 525
741135 583889 509
661691 646393 429
441768 405300 449
189997 428883 449
339867 967830 525
982834 79154 525
33394 725697 509
853002 56419 525
281932 332578 389
464845 956883 525
267429 761853 509
270692 72076 443
602781 333454 470
139041 757308 509
745724 592924 509
847998 335444 525
845704 937346 476
939788 218156 525
920657 820198 525
49834 638286 509
155611 998828 525
843739 469970 525
343329 891701 525
789071 330739 509
939631 77903 525
415305 365075 449
497769 452612 444
920919 265027 525
163747 415033 449
874921 803137 525
224652 942675 525
607161 240294 470
251991 477807 449
929256 923398 476
424267 164370 449
559799 775189 509
36300 495842 449
683904 674239 385
247004 149330 443
559774 346844 470
878048 730954 525
205009 19760 383
536347 564639 452
462965 79043 449
955115 391373 525
218963 462648 449
485416 396437 449
511210 780953 509
521067 921123 525
161497 669409 509
975759 16178 525
524493 652339 509
988657 258449 525
576957 629830 509
217563 436612 449
346405 273855 441
205554 996899 525
215139 855848 525
476894 260139 449
77963 4766 351
493777 826873 509
821734 846358 525
642842 63288 509
657182 371574 509
80348 737895 509
934178 962642 507
579369 750385 509
123592 238878 443
29398 416532 449
297866 613218 470
401059 211458 443
503376 876318 525
576202 928179 525
575844 900637 525
2995 516098 470
497651 343539 449
591585 932849 525
27291 991066 525
647754 313440 509
862312 229164 525
451157 601184 470
990429 902791 507
102805 520430 470
634652 167979 509
969518 228801 525
831199 579620 509
866304 579441 525
480246 948030 525
557758 555774 346
630849 992245 525
909502 738884 525
483592 337224 449
926514 386194 525
678615 255575 509
818121 67286 509
290201 244403 407
921069 588480 525
343561 250333 407
950420 244530 525
462900 224184 449
833297 595892 509
319874 975346 525
407980 746768 509
226520 430926 449
744747 525571 509
596717 450143 470
673454 517743 509
763686 639201 504
794172 644387 504
511861 151875 449
82229 852085 525
62504 842903 525
380567 863090 525
536443 871176 525
900462 95336 525
633003 845819 525
907561 619544 525
298314 195731 443
841484 739157 525
891349 322160 525
655564 573324 509
604917 35830 470
572699 36406 470
52544 610870 470
141147 104730 354
320268 565392 470
172727 216067 373
757013 180828 509
503149 195350 449
